%module aubio
%{
/* Includes the header in the wrapper code */
#include "stdio.h"
#include "aubio/aubio.h"
#include "aubio/types.h"
#include "aubio/fvec.h"
#include "aubio/cvec.h"
#include "aubio/lvec.h"
#include "aubio/fmat.h"
#include "aubio/musicutils.h"
#include "aubio/vecutils.h"
#include "aubio/temporal/resampler.h"
#include "aubio/temporal/filter.h"
#include "aubio/temporal/biquad.h"
#include "aubio/temporal/a_weighting.h"
#include "aubio/temporal/c_weighting.h"
#include "aubio/spectral/fft.h"
#include "aubio/spectral/phasevoc.h"
#include "aubio/spectral/filterbank.h"
#include "aubio/spectral/filterbank_mel.h"
#include "aubio/spectral/mfcc.h"
#include "aubio/spectral/specdesc.h"
#include "aubio/spectral/awhitening.h"
#include "aubio/spectral/tss.h"
#include "aubio/pitch/pitch.h"
#include "aubio/onset/onset.h"
#include "aubio/tempo/tempo.h"
#include "aubio/notes/notes.h"
#include "aubio/io/source.h"
#include "aubio/io/sink.h"
#include "aubio/synth/sampler.h"
#include "aubio/synth/wavetable.h"
#include "aubio/utils/parameter.h"
#include "aubio/utils/log.h"

%}
 
/* Parse the header file to generate wrappers */
%include "/usr/include/aubio/aubio.h"
%include "/usr/include/aubio/types.h"
%include "/usr/include/aubio/fvec.h"
%include "/usr/include/aubio/cvec.h"
%include "/usr/include/aubio/lvec.h"
%include "/usr/include/aubio/fmat.h"
%include "/usr/include/aubio/musicutils.h"
%include "/usr/include/aubio/vecutils.h"
%include "/usr/include/aubio/temporal/resampler.h"
%include "/usr/include/aubio/temporal/filter.h"
%include "/usr/include/aubio/temporal/biquad.h"
%include "/usr/include/aubio/temporal/a_weighting.h"
%include "/usr/include/aubio/temporal/c_weighting.h"
%include "/usr/include/aubio/spectral/fft.h"
%include "/usr/include/aubio/spectral/phasevoc.h"
%include "/usr/include/aubio/spectral/filterbank.h"
%include "/usr/include/aubio/spectral/filterbank_mel.h"
%include "/usr/include/aubio/spectral/mfcc.h"
%include "/usr/include/aubio/spectral/specdesc.h"
%include "/usr/include/aubio/spectral/awhitening.h"
%include "/usr/include/aubio/spectral/tss.h"
%include "/usr/include/aubio/pitch/pitch.h"
%include "/usr/include/aubio/onset/onset.h"
%include "/usr/include/aubio/tempo/tempo.h"
%include "/usr/include/aubio/notes/notes.h"
%include "/usr/include/aubio/io/source.h"
%include "/usr/include/aubio/io/sink.h"
%include "/usr/include/aubio/synth/sampler.h"
%include "/usr/include/aubio/synth/wavetable.h"
%include "/usr/include/aubio/utils/parameter.h"
%include "/usr/include/aubio/utils/log.h"
